{
  "version": 1,
  "type": "doc",
  "content": [
    {
      "type": "paragraph",
      "content": [
        {
          "type": "text",
          "text": "Lorem ipsum dolor sit amet, consectetur adipiscing elit. Aenean mi nisl, venenatis eget auctor vitae, venenatis quis lorem. Suspendisse maximus tortor vel dui tincidunt cursus. Vestibulum magna nibh, auctor non auctor id, finibus vitae orci. Nulla viverra ipsum et nunc fringilla ultricies. Pellentesque vitae felis molestie justo finibus accumsan. Suspendisse potenti. Nulla facilisi. Integer dignissim quis velit quis elementum. Sed sit amet varius ante. Duis vestibulum porta augue eu laoreet. Morbi id risus et augue sollicitudin aliquam. In et ligula dolor. Nam ac aliquet diam."
        }
      ]
    },
    {
      "type": "orderedList",
      "content": [
        {
          "type": "listItem",
          "content": [
            {
              "type": "paragraph",
              "content": [
                {
                  "type": "text",
                  "text": "Tahi"
                }
              ]
            },
            {
              "type": "orderedList",
              "content": [
                {
                  "type": "listItem",
                  "content": [
                    {
                      "type": "paragraph",
                      "content": [
                        {
                          "type": "text",
                          "text": "Rua"
                        }
                      ]
                    },
                    {
                      "type": "orderedList",
                      "content": [
                        {
                          "type": "listItem",
                          "content": [
                            {
                              "type": "paragraph",
                              "content": [
                                {
                                  "type": "text",
                                  "text": "Toru"
                                }
                              ]
                            },
                            {
                              "type": "orderedList",
                              "content": [
                                {
                                  "type": "listItem",
                                  "content": [
                                    {
                                      "type": "paragraph",
                                      "content": [
                                        {
                                          "type": "text",
                                          "text": "Wha"
                                        }
                                      ]
                                    },
                                    {
                                      "type": "orderedList",
                                      "content": [
                                        {
                                          "type": "listItem",
                                          "content": [
                                            {
                                              "type": "paragraph",
                                              "content": [
                                                {
                                                  "type": "text",
                                                  "text": "Rima"
                                                }
                                              ]
                                            },
                                            {
                                              "type": "orderedList",
                                              "content": [
                                                {
                                                  "type": "listItem",
                                                  "content": [
                                                    {
                                                      "type": "paragraph",
                                                      "content": [
                                                        {
                                                          "type": "text",
                                                          "text": "Ono"
                                                        }
                                                      ]
                                                    }
                                                  ]
                                                },
                                                {
                                                  "type": "listItem",
                                                  "content": [
                                                    {
                                                      "type": "paragraph",
                                                      "content": [
                                                        {
                                                          "type": "text",
                                                          "text": "Six"
                                                        }
                                                      ]
                                                    }
                                                  ]
                                                }
                                              ]
                                            }
                                          ]
                                        },
                                        {
                                          "type": "listItem",
                                          "content": [
                                            {
                                              "type": "paragraph",
                                              "content": [
                                                {
                                                  "type": "text",
                                                  "text": "Five"
                                                }
                                              ]
                                            }
                                          ]
                                        }
                                      ]
                                    }
                                  ]
                                },
                                {
                                  "type": "listItem",
                                  "content": [
                                    {
                                      "type": "paragraph",
                                      "content": [
                                        {
                                          "type": "text",
                                          "text": "Four"
                                        }
                                      ]
                                    }
                                  ]
                                }
                              ]
                            }
                          ]
                        },
                        {
                          "type": "listItem",
                          "content": [
                            {
                              "type": "paragraph",
                              "content": [
                                {
                                  "type": "text",
                                  "text": "Three"
                                }
                              ]
                            }
                          ]
                        }
                      ]
                    }
                  ]
                },
                {
                  "type": "listItem",
                  "content": [
                    {
                      "type": "paragraph",
                      "content": [
                        {
                          "type": "text",
                          "text": "Two"
                        }
                      ]
                    }
                  ]
                }
              ]
            }
          ]
        },
        {
          "type": "listItem",
          "content": [
            {
              "type": "paragraph",
              "content": [
                {
                  "type": "text",
                  "text": "One"
                }
              ]
            }
          ]
        }
      ]
    },
    {
      "type": "paragraph",
      "content": [
        {
          "type": "mention",
          "attrs": {
            "id": "4",
            "text": "@Summer",
            "accessLevel": ""
          }
        },
        {
          "type": "text",
          "text": " is a warm season. "
        },
        {
          "type": "mention",
          "attrs": {
            "id": "0",
            "text": "@Carolyn",
            "accessLevel": ""
          }
        },
        {
          "type": "text",
          "text": " wishes to go on a holiday."
        }
      ]
    },
    {
      "type": "decisionList",
      "attrs": {
        "localId": "3d97eebe-f475-4f42-a264-a22c4a64e5f2"
      },
      "content": [
        {
          "type": "decisionItem",
          "attrs": {
            "localId": "695d2be8-528a-4ec0-9eb7-351763af6f94",
            "state": "DECIDED"
          },
          "content": [
            {
              "type": "text",
              "text": "New Zealand was decided as the destination for the holiday."
            }
          ]
        }
      ]
    },
    {
      "type": "taskList",
      "attrs": {
        "localId": "0d950555-7f01-40dc-a1ac-9fb689548507"
      },
      "content": [
        {
          "type": "taskItem",
          "attrs": {
            "localId": "b9ce6302-8e8c-45c2-a2e1-3b1d6c68e059",
            "state": "TODO"
          },
          "content": [
            {
              "type": "mention",
              "attrs": {
                "id": "0",
                "text": "@Carolyn",
                "accessLevel": ""
              }
            },
            {
              "type": "text",
              "text": " to blog about her summer holiday when she gets back."
            }
          ]
        }
      ]
    },
    {
      "type": "bulletList",
      "content": [
        {
          "type": "listItem",
          "content": [
            {
              "type": "paragraph",
              "content": [
                {
                  "type": "text",
                  "text": "Tahi"
                }
              ]
            },
            {
              "type": "bulletList",
              "content": [
                {
                  "type": "listItem",
                  "content": [
                    {
                      "type": "paragraph",
                      "content": [
                        {
                          "type": "text",
                          "text": "Rua"
                        }
                      ]
                    },
                    {
                      "type": "bulletList",
                      "content": [
                        {
                          "type": "listItem",
                          "content": [
                            {
                              "type": "paragraph",
                              "content": [
                                {
                                  "type": "text",
                                  "text": "Toru"
                                }
                              ]
                            },
                            {
                              "type": "bulletList",
                              "content": [
                                {
                                  "type": "listItem",
                                  "content": [
                                    {
                                      "type": "paragraph",
                                      "content": [
                                        {
                                          "type": "text",
                                          "text": "Wha"
                                        }
                                      ]
                                    },
                                    {
                                      "type": "bulletList",
                                      "content": [
                                        {
                                          "type": "listItem",
                                          "content": [
                                            {
                                              "type": "paragraph",
                                              "content": [
                                                {
                                                  "type": "text",
                                                  "text": "Rima"
                                                }
                                              ]
                                            },
                                            {
                                              "type": "bulletList",
                                              "content": [
                                                {
                                                  "type": "listItem",
                                                  "content": [
                                                    {
                                                      "type": "paragraph",
                                                      "content": [
                                                        {
                                                          "type": "text",
                                                          "text": "Ono"
                                                        }
                                                      ]
                                                    }
                                                  ]
                                                },
                                                {
                                                  "type": "listItem",
                                                  "content": [
                                                    {
                                                      "type": "paragraph",
                                                      "content": [
                                                        {
                                                          "type": "text",
                                                          "text": "Six"
                                                        }
                                                      ]
                                                    }
                                                  ]
                                                }
                                              ]
                                            }
                                          ]
                                        },
                                        {
                                          "type": "listItem",
                                          "content": [
                                            {
                                              "type": "paragraph",
                                              "content": [
                                                {
                                                  "type": "text",
                                                  "text": "Five"
                                                }
                                              ]
                                            }
                                          ]
                                        }
                                      ]
                                    }
                                  ]
                                },
                                {
                                  "type": "listItem",
                                  "content": [
                                    {
                                      "type": "paragraph",
                                      "content": [
                                        {
                                          "type": "text",
                                          "text": "Four"
                                        }
                                      ]
                                    }
                                  ]
                                }
                              ]
                            }
                          ]
                        },
                        {
                          "type": "listItem",
                          "content": [
                            {
                              "type": "paragraph",
                              "content": [
                                {
                                  "type": "text",
                                  "text": "Three"
                                }
                              ]
                            }
                          ]
                        }
                      ]
                    }
                  ]
                },
                {
                  "type": "listItem",
                  "content": [
                    {
                      "type": "paragraph",
                      "content": [
                        {
                          "type": "text",
                          "text": "Two"
                        }
                      ]
                    }
                  ]
                }
              ]
            }
          ]
        },
        {
          "type": "listItem",
          "content": [
            {
              "type": "paragraph",
              "content": [
                {
                  "type": "text",
                  "text": "One"
                }
              ]
            }
          ]
        }
      ]
    },
    {
      "type": "heading",
      "attrs": {
        "level": 4
      },
      "content": [
        {
          "type": "text",
          "text": "This is a heading"
        }
      ]
    },
    {
      "type": "heading",
      "attrs": {
        "level": 2
      },
      "content": [
        {
          "type": "text",
          "text": "Some Heading"
        }
      ]
    },
    {
      "type": "heading",
      "attrs": {
        "level": 2
      },
      "content": [
        {
          "type": "text",
          "text": "Some Heading"
        }
      ]
    },
    {
      "type": "heading",
      "attrs": {
        "level": 5
      },
      "content": [
        {
          "type": "text",
          "text": "some heading"
        }
      ]
    },
    {
      "type": "heading",
      "attrs": {
        "level": 6
      },
      "content": [
        {
          "type": "text",
          "text": "some heading"
        }
      ]
    },
    {
      "type": "table",
      "attrs": {
        "isNumberColumnEnabled": false,
        "layout": "default"
      },
      "content": [
        {
          "type": "tableRow",
          "content": [
            {
              "type": "tableHeader",
              "attrs": {},
              "content": [
                {
                  "type": "paragraph",
                  "content": []
                }
              ]
            },
            {
              "type": "tableHeader",
              "attrs": {},
              "content": [
                {
                  "type": "paragraph",
                  "content": []
                }
              ]
            },
            {
              "type": "tableHeader",
              "attrs": {},
              "content": [
                {
                  "type": "paragraph",
                  "content": []
                }
              ]
            },
            {
              "type": "tableHeader",
              "attrs": {},
              "content": [
                {
                  "type": "paragraph",
                  "content": []
                }
              ]
            },
            {
              "type": "tableHeader",
              "attrs": {},
              "content": [
                {
                  "type": "paragraph",
                  "content": []
                }
              ]
            }
          ]
        },
        {
          "type": "tableRow",
          "content": [
            {
              "type": "tableCell",
              "attrs": {},
              "content": [
                {
                  "type": "paragraph",
                  "content": [
                    {
                      "type": "text",
                      "text": "test"
                    }
                  ]
                }
              ]
            },
            {
              "type": "tableCell",
              "attrs": {},
              "content": [
                {
                  "type": "paragraph",
                  "content": [
                    {
                      "type": "text",
                      "text": "test"
                    }
                  ]
                }
              ]
            },
            {
              "type": "tableCell",
              "attrs": {},
              "content": [
                {
                  "type": "paragraph",
                  "content": [
                    {
                      "type": "text",
                      "text": "test"
                    }
                  ]
                }
              ]
            },
            {
              "type": "tableCell",
              "attrs": {},
              "content": [
                {
                  "type": "heading",
                  "attrs": {
                    "level": 2
                  },
                  "content": [
                    {
                      "type": "text",
                      "text": "foo heading"
                    }
                  ]
                }
              ]
            },
            {
              "type": "tableCell",
              "attrs": {},
              "content": [
                {
                  "type": "paragraph",
                  "content": [
                    {
                      "type": "text",
                      "text": "test"
                    }
                  ]
                }
              ]
            }
          ]
        },
        {
          "type": "tableRow",
          "content": [
            {
              "type": "tableCell",
              "attrs": {},
              "content": [
                {
                  "type": "paragraph",
                  "content": [
                    {
                      "type": "text",
                      "text": "test"
                    }
                  ]
                }
              ]
            },
            {
              "type": "tableCell",
              "attrs": {},
              "content": [
                {
                  "type": "heading",
                  "attrs": {
                    "level": 1
                  },
                  "content": [
                    {
                      "type": "text",
                      "text": "bar heading"
                    }
                  ]
                }
              ]
            },
            {
              "type": "tableCell",
              "attrs": {},
              "content": [
                {
                  "type": "paragraph",
                  "content": [
                    {
                      "type": "text",
                      "text": "test"
                    }
                  ]
                }
              ]
            },
            {
              "type": "tableCell",
              "attrs": {},
              "content": [
                {
                  "type": "paragraph",
                  "content": [
                    {
                      "type": "text",
                      "text": "test"
                    }
                  ]
                }
              ]
            },
            {
              "type": "tableCell",
              "attrs": {},
              "content": [
                {
                  "type": "heading",
                  "attrs": {
                    "level": 3
                  },
                  "content": [
                    {
                      "type": "text",
                      "text": "some heading"
                    }
                  ]
                }
              ]
            }
          ]
        }
      ]
    }
  ]
}
